module eo_dict

go 1.17

require (
	github.com/apex/log v1.9.0
	github.com/ktr0731/go-fuzzyfinder v0.5.1
	github.com/spf13/pflag v1.0.5
)

require (
	github.com/gdamore/encoding v1.0.0 // indirect
	github.com/gdamore/tcell/v2 v2.4.0 // indirect
	github.com/lucasb-eyer/go-colorful v1.0.3 // indirect
	github.com/mattn/go-runewidth v0.0.13 // indirect
	github.com/nsf/termbox-go v0.0.0-20201124104050-ed494de23a00 // indirect
	github.com/pkg/errors v0.9.1 // indirect
	github.com/rivo/uniseg v0.2.0 // indirect
	golang.org/x/sys v0.0.0-20210630005230-0f9fa26af87c // indirect
	golang.org/x/term v0.0.0-20201210144234-2321bbc49cbf // indirect
	golang.org/x/text v0.3.6 // indirect
)
